{
  "type": "service_account",
  "project_id": "greenapple-262710",
  "private_key_id": "58444685d97755f206ff64827afc599c0584862c",
  "private_key": "-----BEGIN PRIVATE KEY-----\nMIIEvwIBADANBgkqhkiG9w0BAQEFAASCBKkwggSlAgEAAoIBAQDcqAaqx4KSZLRu\nEtHAIQ64rtZ8au0kjLgrS/Il4J8IYZeuAkIJDhndZdN4bwOeB4410O+QPytwxixM\nwxBpxw7M0YF0Umlq9MFDFBwSp0JrL03LJ2vJ2ZVc1fLjdR2Yvw0j7TT2WMjSuNGC\n3ZGSXqs3kR5T7L4e6wsTCUbLIWRuNou+OfRsbU1d3ucN5PnTkpvfiz5uP+l4ro/j\nD7jmsRqbgDnIf8AYKI1e7urDVOAqkzGfydganvTgV7dWnw8ajr4l4V5KoDGhR4BQ\nx55uhhHYH71rWvhdfrB4h7kM876t8svFWoVfBb+AQwKT+iX5qcOwzpUcMDfygetW\nBIe92UjXAgMBAAECggEAKzv8+m9XBSoYNE0ZrgSMJuGTAxPMXVH5L/qUepl1b6X3\nm0+z8qRBqyCte7Z8xfUDB0Zl+iR2dYVO3seFqsQnATi3nbwcDanhSCxjh8AgAnJl\nUr3pn8YzPtpo2epznx8oCvcKXo5s4uT1oCebw0srTxrvD1Ceu94f8F3r8hcb34AR\nToOt9+XTISsXcgyYbLNg+JIkMBMiv0gAL+izf/t1TH8g+WHBmiH/isjlMvsgpZDl\n7qTkjOKH/kKrDsAJWT/+ChBsiiC/LtOXqXpcYUqrA7n1OekF5YKTF2WuxgK4sERT\nXjxAcHYDozjBewI9dYMtTgKfAHiYOprCsVSsu9cgaQKBgQD4AnN3gbYzWLY9P+RK\nPM4Lv0iM5iZsF+zy06YPk8TTPwSt5nxfC3Zm8cw/KDyPOyE18f6Q6ux/u16IcDYr\n8suEbxqt7LTHqswpRiTsyXvoEMfqLHOZnTqD7PIKyTOf01YKVP8svdL0EMtNN9jR\nbxC7f9b8WGKvMpAVwKD2WTJhRQKBgQDjw/gowUCPkFQhvNtWB6ZyLtTj2J19kaoo\nxkTuTy0BfGlqQqYoc/42hOP9zhXKq+khqpZ7uPSwGYlqM6P0xe3c8zF+p7KR3RFU\nbbKgMAN6fgS7dutcd7qusF8SfWBA7NBRWMKP5f0vNgsumKRXW3nbAyKtsircekSf\niOvo8UOtawKBgQDMWMCpFFB66DpoJy/D12vyk+6EYdIAuIn83lTyes/vOvpxCvsp\nGPm7ArpGw7F6Vr8bgsQ8xcSNzmWqx8Jq3cfA3AbAjcu6xMkprOkZzT3xzXnbQjsR\ntFIVh3M7XeLSasB3DOegBtw9S2Unv78/eWLxCvmpvG27a077DVfTA1WWfQKBgQC9\n4y3LXIJkrmFV10vNh4c+/shCRN/YRk7ku5fQTnYpHP4Ntw8r/rhb36LsgJouY/Bz\nPvNCpspo3oFv5ymz8igC40XKYClB7lp6VxJq9lyQDOwJFnXWm4MqDKTWl2xd9JEg\noK1kpsvURmxAJsYshnkrHIwW38lYEx+PGeoERNC1jQKBgQC49idUPP/GygtIZzmj\nkg/h/jFuNGBkDtL2l+tagDQp8mu5qxPWCmieyG8yZPnqBJhQjf+5PT2Ls+bdVWqH\n3jPs6sV//MvAgfsE3/bxWOA1y+y2wciGIyGjsl1+W10wpRXZVnvM4O60GBoJ+Lim\n2rEnNKeO1PAooDZXp6oQTn7s4g==\n-----END PRIVATE KEY-----\n",
  "client_email": "myserviceaccount@greenapple-262710.iam.gserviceaccount.com",
  "client_id": "111029907863439238860",
  "auth_uri": "https://accounts.google.com/o/oauth2/auth",
  "token_uri": "https://oauth2.googleapis.com/token",
  "auth_provider_x509_cert_url": "https://www.googleapis.com/oauth2/v1/certs",
  "client_x509_cert_url": "https://www.googleapis.com/robot/v1/metadata/x509/myserviceaccount%40greenapple-262710.iam.gserviceaccount.com"
}
